Individual Dose Optimization using Population Pharmacokinetics • posologyr
…
poso_estim_map(patient_data,mod_run001)
#> $eta
#>     ETA_Cl     ETA_Vc     ETA_Ka 
#>  0.6019038 -0.4291736  0.1278476 
#> 
#> $model
#> ── Solved rxode2 object ──
#> ── Parameters ($params): ──
#>   THETA_Cl   THETA_Vc   THETA_Ka     ETA_Cl     ETA_Vc     ETA_Ka 
#>  4.0000000 70.0000000  1.0000000  0.6019038 -0.4291736  0.1278476 
#> ── Initial Conditions ($inits): ──
#> depot centr   AUC 
#>     0     0     0 
#> ── First part of data (object): ──
#> # A tibble: 151 × 12
#>    time  TVCl  TVVc  TVKa    Cl    Vc    Ka   K20     Cc depot centr    AUC
#>   <dbl> <dbl> <dbl> <dbl> <dbl> <dbl> <dbl> <dbl>  <dbl> <dbl> <dbl>  <dbl>
#> 1   0       4    70     1  7.30  45.6  1.14 0.160  0        0    0   0     
#> 2   0.1     4    70     1  7.30  45.6  1.14 0.160  0.478  378.  21.8 0.0161
#> 3   0.2     4    70     1  7.30  45.6  1.14 0.160  1.83   716.  83.5 0.125 
#> 4   0.3     4    70     1  7.30  45.6  1.14 0.160  3.95  1017. 180.  0.408 
#> 5   0.4     4    70     1  7.30  45.6  1.14 0.160  6.75  1286. 307.  0.938 
#> 6   0.5     4    70     1  7.30  45.6  1.14 0.160 10.1   1526. 461.  1.78  
#> # ℹ 145 more rows
…
