Case study: vancomycin dose adjustment • posologyr
…
#>     ETA_Cl     ETA_Vc     ETA_Vp      ETA_Q 
#> 0.10796048 0.04652900 0.06865698 0.00000000 
#> 
#> $model
#> ── Solved rxode2 object ──
#> ── Parameters ($params): ──
#>    THETA_Cl    THETA_Vc    THETA_Vp     THETA_Q      ETA_Cl      ETA_Vc 
#>  4.50000000 58.40000000 38.40000000  6.50000000  0.10796048  0.04652900 
#>      ETA_Vp 
#>  0.06865698 
#> ── Initial Conditions ($inits): ──
#>  centr periph    AUC 
#>      0      0      0 
#> ── First part of data (object): ──
#> # A tibble: 491 × 19
#>    time  TVCl  TVVc  TVVp   TVQ    Cl    Vc    Vp     Q     ke   k12   k21    Cc
#>   <dbl> <dbl> <dbl> <dbl> <dbl> <dbl> <dbl> <dbl> <dbl>  <dbl> <dbl> <dbl> <dbl>
#> 1   0    2.76  58.4  38.4   6.5  3.07  61.2  41.1   6.5 0.0502 0.106 0.158  0   
#> 2   0.1  2.76  58.4  38.4   6.5  3.07  61.2  41.1   6.5 0.0502 0.106 0.158  1.62
#> 3   0.2  2.76  58.4  38.4   6.5  3.07  61.2  41.1   6.5 0.0502 0.106 0.158  3.22
#> 4   0.3  2.76  58.4  38.4   6.5  3.07  61.2  41.1   6.5 0.0502 0.106 0.158  4.79
#> 5   0.4  2.76  58.4  38.4   6.5  3.07  61.2  41.1   6.5 0.0502 0.106 0.158  6.34
#> 6   0.5  2.76  58.4  38.4   6.5  3.07  61.2  41.1   6.5 0.0502 0.106 0.158  7.87
#> # … with 485 more rows, and 6 more variables: centr <dbl>, periph <dbl>,
#> #   AUC <dbl>, CLCREAT <dbl>, WT <dbl>, DIAL <dbl>
…
