Multiple endpoints • posologyr
…
#> 
#> $model
#> ── Solved rxode2 object ──
#> ── Parameters ($params): ──
#>   THETA_ktr     ETA_ktr    THETA_ka      ETA_ka    THETA_cl      ETA_cl 
#>  0.10600000 -0.32052193 -0.08700000 -0.54227235 -2.03000000  0.79432182 
#>     THETA_v       ETA_v  THETA_emax    ETA_emax  THETA_ec50    ETA_ec50 
#>  2.07000000 -0.02986447  3.40000000  0.02383273  0.00724000 -0.28133882 
#>  THETA_kout    ETA_kout    THETA_e0      ETA_e0 
#> -2.90000000 -0.30872226  4.57000000 -0.08386652 
#> ── Initial Conditions ($inits): ──
#>  depot    gut center effect 
#>      0      0      0      0 
#> ── First part of data (object): ──
#> # A tibble: 1,451 × 18
#>    time   ktr    ka    cl     v  emax  ec50   kout    e0    DCP    PD   kin
#>   <dbl> <dbl> <dbl> <dbl> <dbl> <dbl> <dbl>  <dbl> <dbl>  <dbl> <dbl> <dbl>
#> 1   0   0.807 0.533 0.291  7.69 0.968 0.760 0.0404  88.8 0      1      3.59
#> 2   0.1 0.807 0.533 0.291  7.69 0.968 0.760 0.0404  88.8 0.0267 0.967  3.59
#> 3   0.2 0.807 0.533 0.291  7.69 0.968 0.760 0.0404  88.8 0.102  0.885  3.59
#> 4   0.3 0.807 0.533 0.291  7.69 0.968 0.760 0.0404  88.8 0.219  0.783  3.59
#> 5   0.4 0.807 0.533 0.291  7.69 0.968 0.760 0.0404  88.8 0.373  0.681  3.59
#> 6   0.5 0.807 0.533 0.291  7.69 0.968 0.760 0.0404  88.8 0.557  0.590  3.59
#> # ℹ 1,445 more rows
#> # ℹ 6 more variables: cp <dbl>, pca <dbl>, depot <dbl>, gut <dbl>,
#> #   center <dbl>, effect <dbl>
…
