Estimate the prior distribution of population parameters — poso_simu_pop • posologyr
…
#> 91  -0.337617079 -0.048864039       0       0
#> 92   0.365030033 -0.140001951       0       0
#> 93  -0.054145847  0.052117258       0       0
#> 94   0.116170797 -0.100670758       0       0
#> 95   0.199193199  0.105672026       0       0
#> 96   0.328778427  0.053775602       0       0
#> 97   0.101928204  0.038616646       0       0
#> 98  -0.013335559  0.017072070       0       0
#> 99  -0.377772687 -0.184910237       0       0
#> 100  0.078350397  0.023993292       0       0
#> 
#> [[2]]
#> ▂▂▂▂▂▂▂▂▂▂▂▂▂▂▂▂▂▂▂▂▂▂▂▂▂▂▂▂▂▂ Solved RxODE object ▂▂▂▂▂▂▂▂▂▂▂▂▂▂▂▂▂▂▂▂▂▂▂▂▂▂▂▂▂
#> ── Parameters ($params): ───────────────────────────────────────────────────────
#> # A tibble: 100 x 9
#>    sim.id THETA_ke CLCREAT    WT THETA_V THETA_k12 THETA_k21  ETA_ke   ETA_V
#>     <int>    <dbl>   <dbl> <dbl>   <dbl>     <dbl>     <dbl>   <dbl>   <dbl>
#>  1      1     0.21      80    65    19.8     0.041      0.12  0.0374 -0.0612
#>  2      2     0.21      80    65    19.8     0.041      0.12  0.122   0.188 
#>  3      3     0.21      80    65    19.8     0.041      0.12  0.198  -0.0583
#>  4      4     0.21      80    65    19.8     0.041      0.12  0.381  -0.0249
#>  5      5     0.21      80    65    19.8     0.041      0.12  0.125  -0.129 
#>  6      6     0.21      80    65    19.8     0.041      0.12  0.162   0.0473
#>  7      7     0.21      80    65    19.8     0.041      0.12  0.347  -0.0275
#>  8      8     0.21      80    65    19.8     0.041      0.12  0.300   0.0350
#>  9      9     0.21      80    65    19.8     0.041      0.12  0.203  -0.0171
#> 10     10     0.21      80    65    19.8     0.041      0.12 -0.111  -0.122 
#> # … with 90 more rows
#> ── Initial Conditions ($inits): ────────────────────────────────────────────────
#>  centr periph    AUC 
#>      0      0      0 
#> 
#> Simulation without uncertainty in parameters, omega, or sigma matricies
#> 
#> ── First part of data (object): ────────────────────────────────────────────────
#> # A tibble: 200 x 14
#>   sim.id  time tTVke  tTVV tTVk12 tTVk21    ke     V   k12   k21     Cc centr
#>    <int> <dbl> <dbl> <dbl>  <dbl>  <dbl> <dbl> <dbl> <dbl> <dbl>  <dbl> <dbl>
#> 1      1     1 -1.39  2.97  -3.19  -2.12 0.259  18.3 0.041  0.12 21.9   400. 
#> 2      1    14 -1.39  2.97  -3.19  -2.12 0.259  18.3 0.041  0.12  1.06   19.4
#> 3      2     1 -1.39  2.97  -3.19  -2.12 0.281  23.5 0.041  0.12 16.8   394. 
#> 4      2    14 -1.39  2.97  -3.19  -2.12 0.281  23.5 0.041  0.12  0.664  15.6
#> 5      3     1 -1.39  2.97  -3.19  -2.12 0.303  18.4 0.041  0.12 21.1   387. 
#> 6      3    14 -1.39  2.97  -3.19  -2.12 0.303  18.4 0.041  0.12  0.692  12.7
#> # … with 194 more rows, and 2 more variables: periph <dbl>, AUC <dbl>
…
