Estimate the Maximum A Posteriori individual parameters — poso_estim_map • posologyr
…
#>  
#> $eta
#>     ETA_Cl     ETA_Vc     ETA_Ka 
#>  0.6019038 -0.4291730  0.1278482 
#> 
#> $model
#> ── Solved rxode2 object ──
#> ── Parameters ($params): ──
#>   THETA_Cl   THETA_Vc   THETA_Ka    prop.sd     ETA_Cl     ETA_Vc     ETA_Ka 
#>  4.0000000 70.0000000  1.0000000  0.2236068  0.6019038 -0.4291730  0.1278482 
#> ── Initial Conditions ($inits): ──
#> depot centr   AUC 
#>     0     0     0 
#> ── First part of data (object): ──
#> # A tibble: 151 × 13
#>    time  TVCl  TVVc  TVKa    Cl    Vc    Ka   K20   rxCc     Cc depot centr
#>   <dbl> <dbl> <dbl> <dbl> <dbl> <dbl> <dbl> <dbl>  <dbl>  <dbl> <dbl> <dbl>
#> 1   0       4    70     1  7.30  45.6  1.14 0.160  0      0        0    0  
#> 2   0.1     4    70     1  7.30  45.6  1.14 0.160  0.478  0.478  378.  21.8
#> 3   0.2     4    70     1  7.30  45.6  1.14 0.160  1.83   1.83   716.  83.5
#> 4   0.3     4    70     1  7.30  45.6  1.14 0.160  3.95   3.95  1017. 180. 
#> 5   0.4     4    70     1  7.30  45.6  1.14 0.160  6.75   6.75  1286. 307. 
#> 6   0.5     4    70     1  7.30  45.6  1.14 0.160 10.1   10.1   1526. 461. 
#> # ℹ 145 more rows
#> # ℹ 1 more variable: AUC <dbl>
…
