Estimate the posterior distribution of individual parameters by SIR — poso_estim_sir • posologyr
…
#> 91  0.6716634 -0.37950288  1.149491e-01
#> 92  0.5936046 -0.65734376 -2.499049e-01
#> 93  0.5344965 -0.70674608 -5.314845e-01
#> 94  0.3518958 -0.82409806 -2.902659e-01
#> 95  0.4453857 -0.37948184 -5.103432e-02
#> 96  0.4601762 -0.64703527  3.208253e-01
#> 97  0.4682708 -0.73882245 -3.124134e-01
#> 98  0.7111648 -0.25208914  2.856139e-01
#> 99  0.7489848 -0.29036293  1.232090e-01
#> 100 0.7800076 -0.33988351  6.324268e-01
#> 
#> $model
#> ── Solved rxode2 object ──
#> ── Parameters ($params): ──
#> # A tibble: 100 × 7
#>    sim.id THETA_Cl THETA_Vc THETA_Ka ETA_Cl  ETA_Vc  ETA_Ka
#>     <int>    <dbl>    <dbl>    <dbl>  <dbl>   <dbl>   <dbl>
#>  1      1        4       70        1  0.268 -0.131   0.597 
#>  2      2        4       70        1  0.461 -0.411   0.0417
#>  3      3        4       70        1  0.711 -0.252   0.286 
#>  4      4        4       70        1  0.468 -0.739  -0.312 
#>  5      5        4       70        1  0.394 -0.641   0.0971
#>  6      6        4       70        1  0.394 -0.641   0.0971
#>  7      7        4       70        1  0.273 -0.0600  0.650 
#>  8      8        4       70        1  0.394 -0.641   0.0971
#>  9      9        4       70        1  0.816 -0.189   0.0999
#> 10     10        4       70        1  0.600 -0.603  -0.574 
#> # ℹ 90 more rows
#> ── Initial Conditions ($inits): ──
#> depot centr   AUC 
#>     0     0     0 
#> 
#> Simulation without uncertainty in parameters, omega, or sigma matricies
#> 
#> ── First part of data (object): ──
#> # A tibble: 200 × 13
#>   sim.id  time  TVCl  TVVc  TVKa    Cl    Vc    Ka    K20    Cc   depot centr
#>    <int> <dbl> <dbl> <dbl> <dbl> <dbl> <dbl> <dbl>  <dbl> <dbl>   <dbl> <dbl>
#> 1      1     1     4    70     1  5.23  61.4  1.82 0.0852 23.0  5.30e+2 1413.
#> 2      1    14     4    70     1  5.23  61.4  1.82 0.0852 10.6  2.95e-8  651.
#> 3      2     1     4    70     1  6.34  46.4  1.04 0.137  21.8  9.25e+2 1013.
#> 4      2    14     4    70     1  6.34  46.4  1.04 0.137   7.57 1.20e-3  352.
#> 5      3     1     4    70     1  8.15  54.4  1.33 0.150  21.5  7.51e+2 1169.
#> 6      3    14     4    70     1  8.15  54.4  1.33 0.150   5.29 2.31e-5  288.
#> # ℹ 194 more rows
#> # ℹ 1 more variable: AUC <dbl>
…
