Estimate the posterior distribution of individual parameters by MCMC — poso_estim_mcmc • posologyr
…
#> 91  -0.14974917 -0.433221231  0.1920209380
#> 92   0.46836950 -0.498759935 -0.0077979127
#> 93   0.35355259 -0.880203256 -0.3475043627
#> 94   0.31282928 -0.951155764  0.1124920152
#> 95   0.38559362 -0.925947228 -0.5329128492
#> 96   0.42994491 -0.313548689  0.0786226682
#> 97   0.47875651 -0.201088714  0.2745326634
#> 98   0.64955938 -0.255152536  0.2775474261
#> 99   0.72971610 -0.111874101  0.1434326421
#> 100  0.62248895 -0.247504202  0.0393017883
#> 
#> $model
#> ── Solved rxode2 object ──
#> ── Parameters ($params): ──
#> # A tibble: 100 × 7
#>    sim.id THETA_Cl THETA_Vc THETA_Ka ETA_Cl   ETA_Vc ETA_Ka
#>     <int>    <dbl>    <dbl>    <dbl>  <dbl>    <dbl>  <dbl>
#>  1      1        4       70        1 0.0393 -0.189   0.190 
#>  2      2        4       70        1 0.537  -0.169   0.256 
#>  3      3        4       70        1 0.720  -0.135   0.320 
#>  4      4        4       70        1 0.723  -0.408   0.152 
#>  5      5        4       70        1 0.390  -0.791   0.0458
#>  6      6        4       70        1 0.654  -0.247   0.493 
#>  7      7        4       70        1 0.846  -0.208   0.873 
#>  8      8        4       70        1 0.664  -0.243   0.909 
#>  9      9        4       70        1 0.402  -0.00316 1.00  
#> 10     10        4       70        1 0.283  -0.729   0.140 
#> # … with 90 more rows
#> ── Initial Conditions ($inits): ──
#> depot centr   AUC 
#>     0     0     0 
#> 
#> Simulation without uncertainty in parameters, omega, or sigma matricies
#> 
#> ── First part of data (object): ──
#> # A tibble: 200 × 13
#>   sim.id  time  TVCl  TVVc  TVKa    Cl    Vc    Ka    K20    Cc      depot centr
#>    <int> <dbl> <dbl> <dbl> <dbl> <dbl> <dbl> <dbl>  <dbl> <dbl>      <dbl> <dbl>
#> 1      1     1     4    70     1  4.16  58.0  1.21 0.0718 19.7     8.20e+2 1143.
#> 2      1    14     4    70     1  4.16  58.0  1.21 0.0718 13.7     1.23e-4  793.
#> 3      2     1     4    70     1  6.85  59.1  1.29 0.116  19.7     7.72e+2 1166.
#> 4      2    14     4    70     1  6.85  59.1  1.29 0.116   7.56    3.93e-5  447.
#> 5      3     1     4    70     1  8.22  61.1  1.38 0.134  19.6     7.26e+2 1200.
#> 6      3    14     4    70     1  8.22  61.1  1.38 0.134   5.71    1.21e-5  349.
#> # … with 194 more rows, and 1 more variable: AUC <dbl>
…
